{
  "project_info": {
    "project_number": "883728360502",
    "firebase_url": "https://gmssamplesdkapp.firebaseio.com",
    "project_id": "gmssamplesdkapp",
    "storage_bucket": "gmssamplesdkapp.appspot.com"
  },
  "client": [
    {
      "client_info": {
        "mobilesdk_app_id": "1:883728360502:android:0e0c044ce23c1ef4",
        "android_client_info": {
          "package_name": "com.genesys.gms.mobile.gms_app"
        }
      },
      "oauth_client": [
        {
          "client_id": "883728360502-2onpd18qgfupbdvt4m7eeedi3n3orss9.apps.googleusercontent.com",
          "client_type": 3
        }
      ],
      "api_key": [
        {
          "current_key": "AIzaSyBaFjpTii4m_BtZyXOQSRQx4WXjoOrwrg0"
        }
      ],
      "services": {
        "analytics_service": {
          "status": 1
        },
        "appinvite_service": {
          "status": 1,
          "other_platform_oauth_client": []
        },
        "ads_service": {
          "status": 2
        }
      }
    }
  ],
  "configuration_version": "1"
}